<?xml version="1.0" encoding="utf-8"?>
<!-- Generator: Adobe Illustrator 19.2.1, SVG Export Plug-In . SVG Version: 6.00 Build 0)  -->
<svg version="1.1" id="Layer_1" xmlns="http://www.w3.org/2000/svg" xmlns:xlink="http://www.w3.org/1999/xlink" x="0px" y="0px"
	 viewBox="0 0 60 60" style="enable-background:new 0 0 60 60;" xml:space="preserve">
<style type="text/css">
	.st0{opacity:0.54;}
</style>
<title>icon_instagram_hover</title>
<g class="st0">
	<circle cx="30" cy="30" r="6.6"/>
	<path d="M50.6,0H9.4C4.2,0,0,4.2,0,9.4v41.3C0,55.8,4.2,60,9.4,60h41.3c5.2,0,9.4-4.2,9.4-9.4V9.4C60,4.2,55.8,0,50.6,0z
		 M49.6,38.1c0,1.6-0.3,3.2-0.9,4.8c-1,2.7-3.1,4.8-5.8,5.8c-1.5,0.6-3.1,0.9-4.8,0.9c-2.1,0.1-2.8,0.1-8.1,0.1s-6,0-8.1-0.1
		c-1.6,0-3.3-0.3-4.8-0.9c-2.7-1-4.8-3.1-5.8-5.8c-0.6-1.5-0.9-3.1-0.9-4.8c0-2.1-0.1-2.8-0.1-8.1s0-6,0.1-8.1
		c0-1.6,0.3-3.2,0.9-4.8c1-2.7,3.1-4.8,5.8-5.8c1.5-0.6,3.1-0.9,4.8-0.9c2.1-0.1,2.8-0.1,8.1-0.1s6,0,8.1,0.1c1.6,0,3.3,0.3,4.8,0.9
		c2.7,1,4.8,3.1,5.8,5.8c0.6,1.5,0.9,3.1,0.9,4.8c0.1,2.1,0.1,2.8,0.1,8.1S49.7,36,49.6,38.1z"/>
	<path d="M45.4,18.4c-0.7-1.7-2-3.1-3.8-3.8c-1.2-0.4-2.5-0.7-3.8-0.7c-2-0.1-2.6-0.1-7.9-0.1s-5.9,0-8,0.1c-1.3,0-2.5,0.2-3.8,0.7
		c-1.7,0.7-3.1,2-3.8,3.8c-0.4,1.2-0.7,2.5-0.7,3.8c0,2,0,2.6,0,7.9s0,5.9,0.1,8c0,1.3,0.2,2.5,0.7,3.8c0.7,1.7,2,3.1,3.8,3.8
		c1.2,0.4,2.5,0.7,3.8,0.7c2.1,0.1,2.7,0.1,8,0.1s5.9,0,8-0.1c1.3,0,2.5-0.2,3.8-0.7c1.7-0.7,3.1-2,3.8-3.8c0.4-1.2,0.7-2.5,0.7-3.8
		c0.1-2.1,0.1-2.7,0.1-8s0-5.9-0.1-8C46.2,20.8,45.9,19.5,45.4,18.4z M30,40.1c-5.6,0-10.1-4.5-10.1-10.1S24.4,19.9,30,19.9
		S40.1,24.4,40.1,30l0,0C40.1,35.6,35.6,40.1,30,40.1z M40.5,21.8c-1.3,0-2.4-1.1-2.4-2.4s1.1-2.4,2.4-2.4c1.3,0,2.4,1.1,2.4,2.4
		C42.9,20.8,41.9,21.8,40.5,21.8C40.6,21.8,40.5,21.8,40.5,21.8L40.5,21.8z"/>
</g>
</svg>
