<?xml version="1.0" encoding="utf-8"?>
<!-- Generator: Adobe Illustrator 16.0.0, SVG Export Plug-In . SVG Version: 6.00 Build 0)  -->
<!DOCTYPE svg PUBLIC "-//W3C//DTD SVG 1.1//EN" "http://www.w3.org/Graphics/SVG/1.1/DTD/svg11.dtd">
<svg version="1.1" id="Capa_1" xmlns="http://www.w3.org/2000/svg" xmlns:xlink="http://www.w3.org/1999/xlink" x="0px" y="0px"
	 width="612px" height="792px" viewBox="0 0 612 792" enable-background="new 0 0 612 792" xml:space="preserve">
<title>icon_thrill_rides</title>
<path fill="#2F318D" d="M612.068,360.63c0-15.633-10.458-29.333-25.537-33.458c-3.043-26.798-9.942-53.016-20.484-77.84
	c13.814-13.218,14.298-35.132,1.08-48.946c-8.99-9.396-22.489-12.961-34.947-9.229c-16.17-21.6-35.346-40.776-56.946-56.946
	c4.951-18.467-6.006-37.451-24.473-42.402c-11.94-3.201-24.683,0.208-33.429,8.944c-24.825-10.542-51.042-17.441-77.84-20.484
	c-4.98-18.459-23.981-29.386-42.441-24.407c-11.9,3.21-21.196,12.506-24.406,24.407c-26.832,3.102-53.073,10.07-77.908,20.689
	c-13.527-13.511-35.447-13.499-48.958,0.029c-8.736,8.747-12.146,21.488-8.944,33.429c-21.585,16.108-40.76,35.214-56.946,56.741
	c-18.438-5.057-37.485,5.79-42.542,24.228c-3.333,12.151,0.199,25.153,9.221,33.947c-10.542,24.824-17.441,51.042-20.484,77.84
	c-18.459,4.98-29.386,23.981-24.406,42.44c3.21,11.9,12.506,21.196,24.406,24.407c3.037,26.821,9.936,53.062,20.484,77.908
	C33.128,485.58,33.3,507.541,46.951,520.98c8.7,8.564,21.26,11.926,33.074,8.85c16.169,21.601,35.346,40.777,56.946,56.946
	c-4.827,18.539,6.29,37.48,24.828,42.307c11.814,3.076,24.375-0.285,33.074-8.849c4.552,2.002,9.264,3.869,14.134,5.599
	l-28.883,89.447h-39.261c-6.109-0.007-11.067,4.94-11.074,11.049c-0.007,6.109,4.94,11.067,11.049,11.074c0.008,0,0.017,0,0.025,0
	h330.342c6.109,0.007,11.067-4.939,11.074-11.049s-4.94-11.067-11.049-11.074c-0.009,0-0.017,0-0.025,0H432.08l-28.883-89.447
	c4.553-1.729,9.264-3.597,14.135-5.599c6.513,6.427,15.294,10.032,24.444,10.037c19.119-0.002,34.616-15.503,34.614-34.622
	c0-2.995-0.389-5.978-1.157-8.873c21.601-16.169,40.777-35.346,56.946-56.946c18.565,4.726,37.445-6.493,42.171-25.058
	c2.989-11.743-0.365-24.193-8.85-32.845c10.542-24.824,17.441-51.042,20.484-77.84C601.281,390.172,612.002,376.42,612.068,360.63z
	 M545.836,461.959c-10.014-1.405-20.142,1.639-27.722,8.33l-44.041-25.4c11.491-22.797,18.184-47.71,19.665-73.197h50.801
	c3.244,9.546,10.468,17.218,19.801,21.031C561.424,416.55,555.195,439.854,545.836,461.959z M338.126,619.005
	c-3.813-9.334-11.484-16.557-21.03-19.802v-50.869c12.173-0.71,24.248-2.608,36.052-5.667l22.191,68.896
	c-12.207,3.366-24.645,5.831-37.213,7.374V619.005z M273.942,619.005c-12.568-1.544-25.006-4.009-37.213-7.374l22.191-68.964
	c11.804,3.059,23.879,4.957,36.052,5.667v50.801c-9.546,3.245-17.217,10.468-21.03,19.802V619.005z M93.954,470.289
	c-7.594-6.667-17.71-9.707-27.722-8.33c-9.357-22.106-15.585-45.409-18.504-69.236c9.334-3.813,16.557-11.484,19.802-21.031h50.801
	c1.481,25.487,8.174,50.4,19.665,73.197L93.954,470.289z M66.232,259.438c10.014,1.405,20.141-1.638,27.722-8.33l44.041,25.4
	c-11.475,22.755-18.167,47.62-19.665,73.061H67.53c-3.245-9.546-10.468-17.218-19.802-21.031
	C50.658,304.758,56.886,281.501,66.232,259.438z M204.637,120.829c22.131-9.342,45.458-15.547,69.305-18.436
	c3.813,9.333,11.484,16.557,21.03,19.801v50.801c-25.478,1.437-50.39,8.083-73.197,19.528l-25.4-44.041
	C203,140.894,206.013,130.808,204.637,120.829z M338.126,102.393c23.848,2.888,47.175,9.093,69.305,18.436
	c-1.377,10.012,1.663,20.128,8.331,27.722l-25.469,43.973c-22.797-11.493-47.71-18.186-73.197-19.665v-50.801
	C326.614,118.843,334.281,111.675,338.126,102.393z M518.114,250.903c3.919,3.513,8.591,6.083,13.656,7.511
	c2.938,0.801,5.968,1.214,9.013,1.229c1.592,0.111,3.188,0.111,4.779,0c9.359,22.105,15.588,45.409,18.505,69.236
	c-9.334,3.813-16.558,11.484-19.802,21.031h-50.527c-1.479-25.487-8.173-50.4-19.665-73.197L518.114,250.903z M471.547,349.569
	H363.253c-0.526-2.781-1.256-5.52-2.185-8.194l93.817-53.942C464.47,306.849,470.132,327.963,471.547,349.569z M306.034,324.442
	c19.948-0.033,36.147,16.112,36.181,36.061c0.019,11.667-5.599,22.625-15.082,29.42l-10.583-32.706
	c-1.896-5.808-8.142-8.979-13.949-7.083c-3.355,1.096-5.987,3.727-7.082,7.083l-10.583,32.706
	c-16.216-11.619-19.941-34.184-8.322-50.399C283.409,330.04,294.367,324.422,306.034,324.442z M306.034,396.683L306.034,396.683
	L306.034,396.683L306.034,396.683z M350.007,322.394c-1.797-2.067-3.736-4.007-5.804-5.804l54.146-93.817
	c17.957,12.074,33.4,27.518,45.475,45.475L350.007,322.394z M325.084,305.528c-2.586-0.893-5.233-1.6-7.92-2.117V195.05
	c21.577,1.403,42.668,7.041,62.067,16.592L325.084,305.528z M295.041,195.05v108.361c-2.687,0.517-5.334,1.225-7.921,2.117
	l-54.283-93.886c19.42-9.56,40.534-15.199,62.135-16.592H295.041z M267.729,316.589c-2.067,1.798-4.006,3.737-5.804,5.804
	l-93.681-54.079c12.075-17.957,27.518-33.4,45.475-45.475L267.729,316.589z M251,341.375c-0.893,2.586-1.601,5.233-2.117,7.92
	H140.521c1.416-21.605,7.077-42.72,16.661-62.135L251,341.375z M140.521,371.419h108.293c0.517,2.687,1.224,5.334,2.117,7.92
	l-93.75,54.419c-9.575-19.394-15.236-40.484-16.661-62.067V371.419z M262.062,398.731c1.797,2.067,3.736,4.007,5.804,5.804
	l-54.146,93.886c-17.957-12.074-33.4-27.518-45.475-45.475L262.062,398.731z M263.495,456.292l-18.914,58.448
	c-4.006-1.594-7.943-3.346-11.813-5.258L263.495,456.292z M294.973,430.892v95.251c-9.859-0.646-19.639-2.178-29.224-4.574
	L294.973,430.892z M306.034,619.414c6.938,0,12.563,5.625,12.563,12.564c0,6.938-5.625,12.563-12.563,12.563
	c-6.939,0-12.563-5.625-12.563-12.563l0,0C293.471,625.039,299.096,619.414,306.034,619.414z M317.096,526.143v-95.251
	l29.224,90.677C336.734,523.964,326.954,525.494,317.096,526.143z M348.573,456.36l30.658,53.122
	c-3.87,1.729-7.784,3.482-11.745,5.258L348.573,456.36z M344.203,404.604c2.067-1.798,4.006-3.737,5.804-5.804l93.817,54.146
	c-12.073,17.958-27.517,33.401-45.475,45.475L344.203,404.604z M361.068,379.681c0.893-2.586,1.601-5.233,2.117-7.92h108.361
	c-1.414,21.606-7.075,42.721-16.661,62.135L361.068,379.681z M577.382,373.194c-6.938,0-12.563-5.625-12.563-12.564
	c0-6.938,5.625-12.563,12.563-12.563s12.563,5.625,12.563,12.563l0,0c-0.037,6.912-5.651,12.496-12.563,12.496V373.194z
	 M551.845,218.47c3.485,6,1.446,13.689-4.554,17.174c-6.001,3.485-13.689,1.446-17.175-4.554c-3.484-6-1.445-13.689,4.555-17.174
	c0.012-0.007,0.023-0.014,0.035-0.021C540.704,210.438,548.368,212.484,551.845,218.47z M513.607,203.448
	c-6.259,7.938-8.751,18.208-6.828,28.132l-43.699,25.605c-14.076-21.294-32.307-39.525-53.601-53.601l25.4-44.041
	c2.247,0.456,4.535,0.685,6.828,0.683c7.729,0.021,15.246-2.524,21.372-7.238c19.113,14.483,36.139,31.531,50.596,50.665
	L513.607,203.448z M438.499,113.318c1.069-0.279,2.172-0.417,3.277-0.41c6.938,0.035,12.535,5.688,12.5,12.626
	c-0.011,2.157-0.576,4.275-1.644,6.151l0,0c-3.305,6.101-10.93,8.368-17.031,5.063c-6.101-3.305-8.367-10.93-5.063-17.031
	c1.672-3.086,4.558-5.332,7.96-6.194V113.318z M306.034,76.719c6.938,0,12.563,5.625,12.563,12.564
	c0,6.938-5.625,12.563-12.563,12.563c-6.939,0-12.563-5.625-12.563-12.563C293.471,82.344,299.095,76.719,306.034,76.719
	L306.034,76.719z M164.079,114.752c6-3.485,13.689-1.446,17.174,4.554c3.485,6,1.446,13.689-4.554,17.174
	c-6,3.485-13.689,1.446-17.174-4.554c-0.007-0.012-0.014-0.023-0.021-0.036l0,0C156.046,125.893,158.092,118.229,164.079,114.752z
	 M148.988,152.989c6.117,4.738,13.635,7.308,21.372,7.306c2.293,0.002,4.581-0.227,6.828-0.683l25.4,44.041
	c-21.287,14.056-39.518,32.263-53.601,53.532l-44.041-25.4c1.924-9.924-0.569-20.194-6.828-28.132
	C112.66,184.501,129.778,167.452,148.988,152.989z M60.224,218.47c3.445-6.023,11.12-8.113,17.144-4.668
	c6.023,3.444,8.113,11.12,4.668,17.143c-3.445,6.023-11.12,8.113-17.144,4.668c-2.907-1.663-5.03-4.417-5.897-7.652
	C58.136,224.759,58.578,221.348,60.224,218.47z M34.687,348.204c6.939,0,12.564,5.625,12.564,12.563
	c0,6.939-5.625,12.564-12.564,12.564c-6.938,0-12.563-5.625-12.563-12.564C22.123,353.829,27.748,348.204,34.687,348.204
	L34.687,348.204z M60.224,502.518c-3.457-5.997-1.412-13.661,4.575-17.138l0,0c1.886-1.103,4.029-1.691,6.213-1.707
	c1.106-0.008,2.208,0.13,3.278,0.409c6.712,1.76,10.727,8.627,8.967,15.339c-1.759,6.712-8.627,10.727-15.339,8.967
	C64.672,507.537,61.901,505.424,60.224,502.518z M98.461,517.54c6.259-7.938,8.751-18.208,6.828-28.132l43.699-25.128
	c14.076,21.294,32.307,39.525,53.601,53.601l-25.4,44.041c-9.924-1.923-20.194,0.569-28.132,6.828
	c-19.176-14.644-36.227-31.879-50.664-51.21H98.461z M164.147,606.305c-6.535-2.332-9.942-9.521-7.61-16.056
	c2.333-6.535,9.521-9.942,16.056-7.609c1.346,0.479,2.6,1.187,3.708,2.088l0,0c6.436,2.595,9.55,9.914,6.956,16.35
	s-9.914,9.55-16.35,6.956c-1.008-0.406-1.958-0.941-2.828-1.592L164.147,606.305z M204.774,600.296
	c1.405-10.014-1.638-20.142-8.331-27.722l25.401-44.041c5.189,2.686,10.492,5.121,15.909,7.306l-22.123,68.964
	c-3.459-1.366-7.101-2.822-10.925-4.37L204.774,600.296z M408.934,715.145H203.271l26.63-82.688
	c13.986,3.898,28.254,6.706,42.675,8.398c4.98,18.459,23.981,29.387,42.44,24.406c11.9-3.21,21.196-12.506,24.407-24.406
	c14.421-1.691,28.688-4.5,42.675-8.398L408.934,715.145z M374.314,535.839c5.509-2.14,10.88-4.529,16.114-7.17l25.4,44.042
	c-6.691,7.58-9.735,17.708-8.33,27.722c-3.642,1.548-7.283,3.004-10.925,4.37L374.314,535.839z M447.99,606.441
	c-6.001,3.484-13.689,1.445-17.175-4.555c-3.484-6-1.445-13.689,4.555-17.174c6-3.485,13.688-1.446,17.174,4.554
	c0.007,0.013,0.014,0.024,0.021,0.036C456.021,595.3,453.976,602.965,447.99,606.441z M463.012,568.204
	c-7.938-6.259-18.208-8.752-28.132-6.828l-25.469-43.836c21.285-13.969,39.537-32.082,53.669-53.26l44.041,25.4
	c-1.924,9.925,0.569,20.194,6.828,28.132c-14.556,19.079-31.673,36.06-50.869,50.46L463.012,568.204z M551.845,502.518
	c-3.477,5.986-11.141,8.032-17.139,4.575l0,0c-5.986-3.477-8.032-11.141-4.574-17.139l0,0c1.652-2.866,4.381-4.955,7.579-5.804
	c1.069-0.279,2.172-0.417,3.277-0.41c6.938,0.035,12.535,5.688,12.5,12.627C553.478,498.524,552.912,500.643,551.845,502.518z"/>
</svg>
